2 0.747159 0.283854 0.113636 0.0850694 
2 0.196733 0.238715 0.0582386 0.0503472 
3 0.5625 0.28559 0.0426136 0.0607639 
2 0.349432 0.355903 0.130682 0.118056 
3 0.916193 0.757812 0.161932 0.296875 
2 0.0539773 0.278646 0.0596591 0.0572917 
2 0.207386 0.289931 0.0880682 0.0694444 
3 0.260653 0.329861 0.0440341 0.0868056 
2 0.621449 0.373264 0.146307 0.121528 
2 0.0291193 0.253472 0.0497159 0.0520833 
