4 0.872159 0.782118 0.0482955 0.196181 
4 0.870739 0.782118 0.0113636 0.00173611 
4 0.879972 0.782986 0.00142045 0.163194 
1 0.872159 0.782118 0.0482955 0.196181 
4 0.881392 0.782118 0.00994318 0.137153 
4 0.519176 0.993924 0.0696023 0.0121528 
2 0.519176 0.993924 0.0696023 0.0121528 
4 0.93608 0.720486 0.102273 0.0138889 
